{"type":"segment","value":{"id":"gegr74gcak","name":"test"},"version":0}
{"type":"index","value":{"id":"jqsaofil","key_type":"U64","name":"test_u64","value_mode":"replace","value_type":"U64"},"version":0}
{"type":"index","value":{"id":"sudbpro6ak","key_type":"U32","name":"test_u32","value_mode":"replace","value_type":"U32"},"version":0}
{"type":"index","value":{"id":"q6e9eoil","key_type":"PersyId","name":"test_p","value_mode":"replace","value_type":"PersyId"},"version":0}
{"type":"index","value":{"id":"ta8vj1g5ak","key_type":"I32","name":"test_i32","value_mode":"replace","value_type":"I32"},"version":0}
{"type":"index","value":{"id":"linddr0aak","key_type":"F32","name":"test_f32","value_mode":"replace","value_type":"F32"},"version":0}
{"type":"index","value":{"id":"m20pjig6ak","key_type":"F64","name":"test_f64","value_mode":"replace","value_type":"F64"},"version":0}
{"type":"index","value":{"id":"mv3qdmo2ak","key_type":"U128","name":"test_u128","value_mode":"replace","value_type":"U128"},"version":0}
{"type":"index","value":{"id":"sqv89l81ak","key_type":"I16","name":"test_i16","value_mode":"replace","value_type":"I16"},"version":0}
{"type":"index","value":{"id":"nqbtj4g2ak","key_type":"I8","name":"test_i8","value_mode":"replace","value_type":"I8"},"version":0}
{"type":"index","value":{"id":"k7nvh8oaak","key_type":"I128","name":"test_i128","value_mode":"replace","value_type":"I128"},"version":0}
{"type":"index","value":{"id":"prqcv5o2ak","key_type":"String","name":"test_string","value_mode":"replace","value_type":"String"},"version":0}
{"type":"index","value":{"id":"g2gb1f04ak","key_type":"U8","name":"test_u8","value_mode":"replace","value_type":"U8"},"version":0}
{"type":"index","value":{"id":"seg8f80bak","key_type":"U16","name":"test_u16","value_mode":"replace","value_type":"U16"},"version":0}
{"type":"index","value":{"id":"hr4qfa08ak","key_type":"I64","name":"test_i64","value_mode":"replace","value_type":"I64"},"version":0}
{"type":"entry","value":{"index":"test_u64","key":{"type":"u64","value":10},"value":{"type":"u64","value":[10]}},"version":0}
{"type":"entry","value":{"index":"test_u32","key":{"type":"u32","value":10},"value":{"type":"u32","value":[10]}},"version":0}
{"type":"entry","value":{"index":"test_p","key":{"type":"PersyId","value":"o0c5a58"},"value":{"type":"PersyId","value":["o0c5a58"]}},"version":0}
{"type":"entry","value":{"index":"test_i32","key":{"type":"i32","value":10},"value":{"type":"i32","value":[10]}},"version":0}
{"type":"entry","value":{"index":"test_f32","key":{"type":"f32","value":10.0},"value":{"type":"f32","value":[10.0]}},"version":0}
{"type":"entry","value":{"index":"test_f64","key":{"type":"f64","value":10.0},"value":{"type":"f64","value":[10.0]}},"version":0}
{"type":"entry","value":{"index":"test_u128","key":{"type":"u128","value":"10"},"value":{"type":"u128","value":["10"]}},"version":0}
{"type":"entry","value":{"index":"test_i16","key":{"type":"i16","value":10},"value":{"type":"i16","value":[10]}},"version":0}
{"type":"entry","value":{"index":"test_i8","key":{"type":"i8","value":10},"value":{"type":"i8","value":[10]}},"version":0}
{"type":"entry","value":{"index":"test_i128","key":{"type":"i128","value":"10"},"value":{"type":"i128","value":["10"]}},"version":0}
{"type":"entry","value":{"index":"test_string","key":{"type":"String","value":"one"},"value":{"type":"String","value":["two"]}},"version":0}
{"type":"entry","value":{"index":"test_u8","key":{"type":"u8","value":10},"value":{"type":"u8","value":[10]}},"version":0}
{"type":"entry","value":{"index":"test_u16","key":{"type":"u16","value":10},"value":{"type":"u16","value":[10]}},"version":0}
{"type":"entry","value":{"index":"test_i64","key":{"type":"i64","value":10},"value":{"type":"i64","value":[10]}},"version":0}
{"type":"record","value":{"content":"dGVzdA==","id":"o0c5a58","segment":"test"},"version":0}

